330 411
331 437
332 346
333 242
334 438
335 334
336 360
337 256
338 413
339 322
340 361
341 244
342 297
343 388
344 336
345 441
346 311
347 415
348 402
349 268
350 294
351 255
352 385
353 308
354 412
355 386
356 282
357 439
358 296
359 387
360 270
361 427
362 323
363 284
364 245
365 428
366 376
367 285
368 259
370 424
371 398
372 399
373 425
374 295
375 269
376 243
377 426
378 309
379 374
380 257
381 440
382 349
383 362
384 271
385 389
386 298
387 350
388 246
392 333
393 320
394 372
395 321
396 347
397 373
398 400
399 348
400 283
401 414
402 401
403 310
404 258
405 375
406 363
407 337
408 272
413 359
414 254
415 305
416 409
417 335
418 383
419 266
420 434
421 291
422 382
423 265
424 433
425 303
426 381
427 355
428 324
432 307
433 281
434 436
435 293
436 384
437 241
438 331
439 357
440 240
441 408
442 317
443 356
444 239
445 407
446 329
447 238
448 264
454 410
455 267
456 358
457 422
458 435
459 292
460 370
461 253
462 395
463 304
464 369
465 278
466 394
467 316
468 342
469 277
475 423
476 332
477 397
478 306
479 371
480 396
481 344
482 279
483 421
484 330
485 343
486 252
487 420
488 290
489 368
490 251
498 345
499 319
500 318
501 221
502 130
503 26
504 301
505 327
506 353
507 236
508 406
509 328
510 354
511 250
520 280
521 195
522 117
523 156
524 39
525 431
526 405
527 379
528 262
529 432
530 302
531 393
532 276
542 91
543 208
544 182
545 52
546 418
547 314
548 366
549 249
550 380
551 289
552 367
553 237
565 65
566 104
567 169
568 392
569 288
570 340
571 275
572 419
573 315
574 341
575 263
588 143
589 78
590 207
591 103
592 129
593 25
594 193
595 102
596 154
597 24
612 181
613 77
614 155
615 51
616 219
617 76
618 128
619 50
635 194
636 168
637 38
638 180
639 89
640 167
641 37
657 220
658 90
659 64
660 206
661 115
662 141
663 63
671 209
672 105
673 40
674 28
675 145
676 80
677 158
678 29
679 159
680 107
681 116
682 142
683 49
684 127
685 101
686 179
695 79
696 157
697 14
698 41
699 119
700 93
701 171
702 55
703 133
704 211
705 81
706 23
707 153
708 75
709 205
719 66
720 53
721 54
722 210
723 67
724 184
725 16
726 146
727 68
728 185
729 198
730 140
731 114
732 218
733 35
742 92
743 144
744 15
745 132
746 106
747 197
748 42
749 120
750 161
751 94
752 172
753 62
754 166
755 192
756 113
757 74
758 152
759 165
760 60
761 125
762 99
763 203
764 46
765 85
766 189
767 32
768 123
769 110
770 201
771 31
772 83
773 174
774 69
775 95
776 160
777 36
778 88
779 61
780 100
781 87
782 217
783 34
784 151
785 86
786 177
787 59
788 150
789 111
790 176
791 58
792 84
793 175
794 57
795 135
796 109
797 200
798 173
799 121
800 199
801 212
802 147
803 22
804 178
805 139
806 204
807 47
808 164
809 73
810 216
811 20
812 163
813 124
814 215
815 19
816 162
817 71
818 214
819 44
820 148
821 70
822 213
823 17
824 108
825 43
826 186
827 48
828 191
829 126
830 21
831 138
832 112
833 190
834 33
835 137
836 98
837 72
838 202
839 136
840 97
841 188
842 18
843 122
844 96
845 187
846 30
847 56
848 82
849 134
